{
   "category":[
      {
         "subcategory":[
            {
               "product":[
                  {
                     "nameProduct":"Пылесос",
                     "date": "2003-11-10",
                     "color":"#447654",
                     "model":"df34",
                     "price":2000.0,
                     "quantity":0
                  },
                  {
                     "nameProduct":"Утюг",
                     "date": "2003-11-10",
                     "color":"#AB5675",
                     "model":"JH67",
                     "price":3020.0,
                     "quantity":1
                  }
               ],
               "nameCategory":"Бытовая техника"
            },
            {
               "product":[
                  {
                     "nameProduct":"Lenovo",
                     "date": "2003-11-10",
                     "color":"#FFFFFF",
                     "model":"ER56",
                     "price":30000.0,
                     "quantity":34
                  },
                  {
                     "nameProduct":"Asus",
                     "date": "2003-11-10",
                     "color":"#445566",
                     "model":"SD67",
                     "price":345435.0,
                     "quantity":2
                  },
                  {
                     "nameProduct":"LG",
                     "date": "2003-11-10",
                     "color":"#2345FF",
                     "model":"GH56",
                     "price":40000.0,
                     "quantity":7922
                  }
               ],
               "nameCategory":"Компьютеры"
            },
            {
               "product":[
                  {
                     "nameProduct":"Горизонт",
                     "date": "2003-11-10",
                     "color":"#ABDFBB",
                     "model":"HJ78",
                     "price":4000.0,
                     "quantity":3
                  },
                  {
                     "nameProduct":"LG",
                     "date": "2003-11-10",
                     "color":"#DDDDDD",
                     "model":"KL67",
                     "price":5000.0,
                     "quantity":792
                  },
                  {
                     "nameProduct":"Тайга",
                     "date": "2003-11-10",
                     "color":"#000000",
                     "model":"AA00",
                     "price":500.0,
                     "quantity":0
                  }
               ],
               "nameCategory":"Телевизоры"
            }
         ],
         "nameCategory":"Электротехника"
      },
      {
         "subcategory":[
            {
               "product":[
                  {
                     "nameProduct":"Тарелка",
                     "date": "2003-11-10",
                     "color":"#FFFFFF",
                     "model":"ER99",
                     "price":30.0,
                     "quantity":34
                  },
                  {
                     "nameProduct":"Кружка",
                     "date": "2003-11-10",
                     "color":"#445566",
                     "model":"SD34",
                     "price":435.0,
                     "quantity":2
                  }
               ],
               "nameCategory":"Посуда"
            },
            {
               "product":[
                  {
                     "nameProduct":"Ложка",
                     "date": "2003-11-10",
                     "color":"#ABDFBB",
                     "model":"Hs78",
                     "price":4.5,
                     "quantity":3
                  },
                  {
                     "nameProduct":"Вилка",
                     "date": "2003-11-10",
                     "color":"#DDDDDD",
                     "model":"fL67",
                     "price":5.5,
                     "quantity":792
                  }
               ],
               "nameCategory":"Прочее"
            }
         ],
         "nameCategory":"Кухонные приборы"
      }
   ]
}